# USERNAME; USER_PASSWORD; USER_OU; WINDOWS_HOME_DIR; UID_NUMBER=; LINUX_HOME_DIR; PRIMARY_GROUP; GID_NUMBER
#
# IMPORTANT: UIDs MUST be bigger than 5 000 000 because in smb.conf: idmap config ${SAMBA4_DOMAIN} : range = 5000000-2147483647
#
# School with number 701076:
direktion;Passw0rd;OU=Users,OU=VERWALTUNG;\\\\fsv-gfb\\users\\701076\\v\\direktion;6100001;/home/users/701076/v/direktion;Verwaltung;6000001
#
administration;Passw0rd;OU=Users,OU=VERWALTUNG;\\\\fsv-gfb\\users\\701076\\v\\administration;6100011;/home/users/701076/v/administration;Verwaltung;6000001
administration02;Passw0rd;OU=Users,OU=VERWALTUNG;\\\\fsv-gfb\\users\\701076\\v\\administration02;6100012;/home/users/701076/v/administration02;Verwaltung;6000001
#
sekretariat;Passw0rd;OU=Users,OU=VERWALTUNG;\\\\fsv-gfb\\users\\701076\\v\\sekretariat;6100021;/home/users/701076/v/sekretariat;Verwaltung;6000001
sekretariat02;Passw0rd;OU=Users,OU=VERWALTUNG;\\\\fsv-gfb\\users\\701076\\v\\sekretariat02;6100022;/home/users/701076/v/sekretariat02;Verwaltung;6000001
sekretariat03;Passw0rd;OU=Users,OU=VERWALTUNG;\\\\fsv-gfb\\users\\701076\\v\\sekretariat03;6100023;/home/users/701076/v/sekretariat03;Verwaltung;6000001
#
buchhaltung;Passw0rd;OU=Users,OU=VERWALTUNG;\\\\fsv-gfb\\users\\701076\\v\\buchhaltung;6100031;/home/users/701076/v/buchhaltung;Verwaltung;6000001
buchhaltung02;Passw0rd;OU=Users,OU=VERWALTUNG;\\\\fsv-gfb\\users\\701076\\v\\buchhaltung02;6100032;/home/users/701076/v/buchhaltung02;Verwaltung;6000001
#
fernstudium;Passw0rd;OU=Users,OU=VERWALTUNG;\\\\fsv-gfb\\users\\701076\\v\\fernstudium;6100041;/home/users/701076/v/fernstudium;Verwaltung;6000001
fernstudium02;Passw0rd;OU=Users,OU=VERWALTUNG;\\\\fsv-gfb\\users\\701076\\v\\fernstudium02;6100042;/home/users/701076/v/fernstudium02;Verwaltung;6000001
#
berufsreife;Passw0rd;OU=Users,OU=VERWALTUNG;\\\\fsv-gfb\\users\\701076\\v\\berufsreife;6100051;/home/users/701076/v/berufsreife;Verwaltung;6000001
berufsreife02;Passw0rd;OU=Users,OU=VERWALTUNG;\\\\fsv-gfb\\users\\701076\\v\\berufsreife02;6100052;/home/users/701076/v/berufsreife02;Verwaltung;6000001

