# HOSTNAME; COMPUTEROU; IP
#
# ATTENTION:
# because of ldbmodify command in add_linux_host.sh,
# we need fuĺl DN: DC=...,DC=... 
#
# Floor0:
#
# Floor0/R001:
r001pc01;OU=R001,OU=FLOOR0,OU=Computers,OU=SCHOOL,DC=OSOS,DC=AT;192.168.1.21
r001pc02;OU=R001,OU=FLOOR0,OU=Computers,OU=SCHOOL,DC=OSOS,DC=AT;192.168.1.22
r001pc03;OU=R001,OU=FLOOR0,OU=Computers,OU=SCHOOL,DC=OSOS,DC=AT;192.168.1.23
#
# Floor0/R002:
r002pc01;OU=R002,OU=FLOOR0,OU=Computers,OU=SCHOOL,DC=OSOS,DC=AT;192.168.1.24
r002pc02;OU=R002,OU=FLOOR0,OU=Computers,OU=SCHOOL,DC=OSOS,DC=AT;192.168.1.25
r002pc03;OU=R002,OU=FLOOR0,OU=Computers,OU=SCHOOL,DC=OSOS,DC=AT;192.168.1.26
#
#
# Floor0/R080: we use these hosts for testing
v-r080pc11;OU=R080,OU=FLOOR0,OU=Computers,OU=SCHOOL,DC=OSOS,DC=AT;192.168.1.27
v-r080pc12;OU=R080,OU=FLOOR0,OU=Computers,OU=SCHOOL,DC=OSOS,DC=AT;192.168.1.28
v-r080pc13;OU=R080,OU=FLOOR0,OU=Computers,OU=SCHOOL,DC=OSOS,DC=AT;192.168.1.29
v-r080pc14;OU=R080,OU=FLOOR0,OU=Computers,OU=SCHOOL,DC=OSOS,DC=AT;192.168.1.30
v-r080pc15;OU=R080,OU=FLOOR0,OU=Computers,OU=SCHOOL,DC=OSOS,DC=AT;192.168.1.31
#
# Floor1:
#
# Floor1/R101:
r101pc01;OU=R101,OU=FLOOR1,OU=Computers,OU=SCHOOL,DC=OSOS,DC=AT;192.168.1.32
r101pc02;OU=R101,OU=FLOOR1,OU=Computers,OU=SCHOOL,DC=OSOS,DC=AT;192.168.1.33
r101pc03;OU=R101,OU=FLOOR1,OU=Computers,OU=SCHOOL,DC=OSOS,DC=AT;192.168.1.34
# Floor1/R102:
r102pc01;OU=R102,OU=FLOOR1,OU=Computers,OU=SCHOOL,DC=OSOS,DC=AT;192.168.1.35
r102pc02;OU=R102,OU=FLOOR1,OU=Computers,OU=SCHOOL,DC=OSOS,DC=AT;192.168.1.36
r102pc03;OU=R102,OU=FLOOR1,OU=Computers,OU=SCHOOL,DC=OSOS,DC=AT;192.168.1.37
